%YAML 1.1
%TAG !u! tag:unity3d.com,2011:
--- !u!1001 &4771012369359608896
PrefabInstance:
  m_ObjectHideFlags: 0
  serializedVersion: 2
  m_Modification:
    m_TransformParent: {fileID: 0}
    m_Modifications:
    - target: {fileID: 100010, guid: f965da8f196667e409677880ed6aa66c, type: 3}
      propertyPath: m_Name
      value: BrickFacade
      objectReference: {fileID: 0}
    - target: {fileID: 400010, guid: f965da8f196667e409677880ed6aa66c, type: 3}
      propertyPath: m_LocalPosition.x
      value: 57.076935
      objectReference: {fileID: 0}
    - target: {fileID: 400010, guid: f965da8f196667e409677880ed6aa66c, type: 3}
      propertyPath: m_LocalPosition.y
      value: 4.3604126
      objectReference: {fileID: 0}
    - target: {fileID: 400010, guid: f965da8f196667e409677880ed6aa66c, type: 3}
      propertyPath: m_LocalPosition.z
      value: 118.55591
      objectReference: {fileID: 0}
    - target: {fileID: 400010, guid: f965da8f196667e409677880ed6aa66c, type: 3}
      propertyPath: m_LocalRotation.x
      value: -0.00012706158
      objectReference: {fileID: 0}
    - target: {fileID: 400010, guid: f965da8f196667e409677880ed6aa66c, type: 3}
      propertyPath: m_LocalRotation.y
      value: -0.99977744
      objectReference: {fileID: 0}
    - target: {fileID: 400010, guid: f965da8f196667e409677880ed6aa66c, type: 3}
      propertyPath: m_LocalRotation.z
      value: 0.006310223
      objectReference: {fileID: 0}
    - target: {fileID: 400010, guid: f965da8f196667e409677880ed6aa66c, type: 3}
      propertyPath: m_LocalRotation.w
      value: -0.020132111
      objectReference: {fileID: 0}
    - target: {fileID: 400010, guid: f965da8f196667e409677880ed6aa66c, type: 3}
      propertyPath: m_RootOrder
      value: 0
      objectReference: {fileID: 0}
    - target: {fileID: 400010, guid: f965da8f196667e409677880ed6aa66c, type: 3}
      propertyPath: m_LocalEulerAnglesHint.x
      value: 0.72300005
      objectReference: {fileID: 0}
    - target: {fileID: 400010, guid: f965da8f196667e409677880ed6aa66c, type: 3}
      propertyPath: m_LocalEulerAnglesHint.y
      value: -182.30699
      objectReference: {fileID: 0}
    - target: {fileID: 400010, guid: f965da8f196667e409677880ed6aa66c, type: 3}
      propertyPath: m_LocalEulerAnglesHint.z
      value: 0
      objectReference: {fileID: 0}
    - target: {fileID: 400010, guid: f965da8f196667e409677880ed6aa66c, type: 3}
      propertyPath: m_LocalScale.x
      value: 10.618
      objectReference: {fileID: 0}
    - target: {fileID: 400010, guid: f965da8f196667e409677880ed6aa66c, type: 3}
      propertyPath: m_LocalScale.y
      value: 10.618001
      objectReference: {fileID: 0}
    - target: {fileID: 400010, guid: f965da8f196667e409677880ed6aa66c, type: 3}
      propertyPath: m_LocalScale.z
      value: 10.617999
      objectReference: {fileID: 0}
    m_RemovedComponents: []
  m_SourcePrefab: {fileID: 100100000, guid: f965da8f196667e409677880ed6aa66c, type: 3}
